Introducing the Fisheries Integrated Modeling System (FIMS) • FIMS
…
# Or, look at the structure using str()
# Increase max.level to see more of the structure
str(data_4_model, max.level = 1)

## Formal class 'FIMSFrame' [package "FIMS"] with 9 slots

# Use dplyr to subset the data for just the landings
get_data(data_4_model) |>
  dplyr::filter(type == "landings")

## # A tibble: 30 × 8
##    type     name     age length timing value unit  uncertainty
##    <chr>    <chr>  <int>  <dbl>  <int> <dbl> <chr>       <dbl>
##  1 landings fleet1    NA     NA      1  162. mt         0.0100
##  2 landings fleet1    NA     NA      2  461. mt         0.0100
##  3 landings fleet1    NA     NA      3  747. mt         0.0100
##  4 landings fleet1    NA     NA      4  997. mt         0.0100
##  5 landings fleet1    NA     NA      5  768. mt         0.0100
##  6 landings fleet1    NA     NA      6 1344. mt         0.0100
##  7 landings fleet1    NA     NA      7 1319. mt         0.0100
##  8 landings fleet1    NA     NA      8 2598. mt         0.0100
##  9 landings fleet1    NA     NA      9 1426. mt         0.0100
## 10 landings fleet1    NA     NA     10 1644. mt         0.0100
## # ℹ 20 more rows
…
